{
    "photos": {
        "page": 1,
        "pages": 32124,
        "perpage": 10,
        "total": "321240",
        "photo": [{
                  "id": "27849756644",
                  "owner": "49271313@N00",
                  "secret": "ef64029020",
                  "server": "8562",
                  "farm": 9,
                  "title": "Bill the girl",
                  "ispublic": 1,
                  "isfriend": 0,
                  "isfamily": 0
                  }, {
                  "id": "28466525675",
                  "owner": "143919671@N07",
                  "secret": "5fb9b8a8c2",
                  "server": "8213",
                  "farm": 9,
                  "title": "This former street cat is looking for a home! (Brooklyn NY) via http:\/\/ift.tt\/29KELz0",
                  "ispublic": 1,
                  "isfriend": 0,
                  "isfamily": 0
                  }, {
                  "id": "27849745284",
                  "owner": "143919671@N07",
                  "secret": "f676db1926",
                  "server": "8592",
                  "farm": 9,
                  "title": "I love my cat via http:\/\/ift.tt\/29KELz0",
                  "ispublic": 1,
                  "isfriend": 0,
                  "isfamily": 0
                  }, {
                  "id": "27850230883",
                  "owner": "143919671@N07",
                  "secret": "ac8e50e8fd",
                  "server": "8395",
                  "farm": 9,
                  "title": "Our boy Ender looking like he\u2019s posing for some whisky ad. via http:\/\/ift.tt\/29KELz0",
                  "ispublic": 1,
                  "isfriend": 0,
                  "isfamily": 0
                  }, {
                  "id": "28433965896",
                  "owner": "143919671@N07",
                  "secret": "5ca25a7a48",
                  "server": "8838",
                  "farm": 9,
                  "title": "Boxes are kitty homes. Henry took a mortgage out on this one today. Good time to buy. But alas he is always unimpressed. via http:\/\/ift.tt\/29KELz0",
                  "ispublic": 1,
                  "isfriend": 0,
                  "isfamily": 0
                  }, {
                  "id": "27849616284",
                  "owner": "128035868@N04",
                  "secret": "79026d4ba7",
                  "server": "8682",
                  "farm": 9,
                  "title": "reichert, carl - Kittens",
                  "ispublic": 1,
                  "isfriend": 0,
                  "isfamily": 0
                  }, {
                  "id": "28361320842",
                  "owner": "128035868@N04",
                  "secret": "3b21a0aec9",
                  "server": "8828",
                  "farm": 9,
                  "title": "reichert, carl - Kittens on a Spinning Wheel",
                  "ispublic": 1,
                  "isfriend": 0,
                  "isfamily": 0
                  }, {
                  "id": "27850091063",
                  "owner": "128035868@N04",
                  "secret": "a745e86a00",
                  "server": "8770",
                  "farm": 9,
                  "title": "reichert, carl - Kittens Playing with Beetles",
                  "ispublic": 1,
                  "isfriend": 0,
                  "isfamily": 0
                  }, {
                  "id": "28361319992",
                  "owner": "128035868@N04",
                  "secret": "36ab4831c7",
                  "server": "8734",
                  "farm": 9,
                  "title": "reichert, carl - The Kittens Recital",
                  "ispublic": 1,
                  "isfriend": 0,
                  "isfamily": 0
                  }, {
                  "id": "27850118203",
                  "owner": "100006676@N07",
                  "secret": "1a3d41fbe1",
                  "server": "8164",
                  "farm": 9,
                  "title": "A038497 02 GOSHEN",
                  "ispublic": 1,
                  "isfriend": 0,
                  "isfamily": 0
                  }]
    },
    "stat": "ok"
}